%YAML 1.1
%TAG !u! tag:unity3d.com,2011:
--- !u!1 &5826130936701678777
GameObject:
  m_ObjectHideFlags: 0
  m_CorrespondingSourceObject: {fileID: 0}
  m_PrefabInstance: {fileID: 0}
  m_PrefabAsset: {fileID: 0}
  serializedVersion: 6
  m_Component:
  - component: {fileID: 6769357242574259966}
  - component: {fileID: 1160318304379508617}
  m_Layer: 0
  m_Name: BowSocket
  m_TagString: Untagged
  m_Icon: {fileID: 0}
  m_NavMeshLayer: 0
  m_StaticEditorFlags: 0
  m_IsActive: 1
--- !u!4 &6769357242574259966
Transform:
  m_ObjectHideFlags: 0
  m_CorrespondingSourceObject: {fileID: 0}
  m_PrefabInstance: {fileID: 0}
  m_PrefabAsset: {fileID: 0}
  m_GameObject: {fileID: 5826130936701678777}
  m_LocalRotation: {x: -0.044066347, y: 0.73345864, z: 0.64882886, w: -0.19778205}
  m_LocalPosition: {x: 0.033, y: -0.03, z: -0.675}
  m_LocalScale: {x: 0.75, y: 0.75, z: 0.75}
  m_ConstrainProportionsScale: 0
  m_Children:
  - {fileID: 33259222435013859}
  m_Father: {fileID: 0}
  m_RootOrder: 0
  m_LocalEulerAnglesHint: {x: -69.123, y: -462.941, z: -64.368}
--- !u!114 &1160318304379508617
MonoBehaviour:
  m_ObjectHideFlags: 0
  m_CorrespondingSourceObject: {fileID: 0}
  m_PrefabInstance: {fileID: 0}
  m_PrefabAsset: {fileID: 0}
  m_GameObject: {fileID: 5826130936701678777}
  m_Enabled: 1
  m_EditorHideFlags: 0
  m_Script: {fileID: 11500000, guid: ad993762ebebbe54ca42334de2d70894, type: 3}
  m_Name: 
  m_EditorClassIdentifier: 
--- !u!1001 &34089857886753513
PrefabInstance:
  m_ObjectHideFlags: 0
  serializedVersion: 2
  m_Modification:
    m_TransformParent: {fileID: 6769357242574259966}
    m_Modifications:
    - target: {fileID: 1563655986059756, guid: 7f105c0c272e6c146b4b41cdc53ea356, type: 3}
      propertyPath: m_Name
      value: Simple Bow
      objectReference: {fileID: 0}
    - target: {fileID: 4281075886339594, guid: 7f105c0c272e6c146b4b41cdc53ea356, type: 3}
      propertyPath: m_RootOrder
      value: 0
      objectReference: {fileID: 0}
    - target: {fileID: 4281075886339594, guid: 7f105c0c272e6c146b4b41cdc53ea356, type: 3}
      propertyPath: m_LocalPosition.x
      value: 0
      objectReference: {fileID: 0}
    - target: {fileID: 4281075886339594, guid: 7f105c0c272e6c146b4b41cdc53ea356, type: 3}
      propertyPath: m_LocalPosition.y
      value: 0
      objectReference: {fileID: 0}
    - target: {fileID: 4281075886339594, guid: 7f105c0c272e6c146b4b41cdc53ea356, type: 3}
      propertyPath: m_LocalPosition.z
      value: 0
      objectReference: {fileID: 0}
    - target: {fileID: 4281075886339594, guid: 7f105c0c272e6c146b4b41cdc53ea356, type: 3}
      propertyPath: m_LocalRotation.w
      value: 1
      objectReference: {fileID: 0}
    - target: {fileID: 4281075886339594, guid: 7f105c0c272e6c146b4b41cdc53ea356, type: 3}
      propertyPath: m_LocalRotation.x
      value: 0
      objectReference: {fileID: 0}
    - target: {fileID: 4281075886339594, guid: 7f105c0c272e6c146b4b41cdc53ea356, type: 3}
      propertyPath: m_LocalRotation.y
      value: 0
      objectReference: {fileID: 0}
    - target: {fileID: 4281075886339594, guid: 7f105c0c272e6c146b4b41cdc53ea356, type: 3}
      propertyPath: m_LocalRotation.z
      value: 0
      objectReference: {fileID: 0}
    - target: {fileID: 4281075886339594, guid: 7f105c0c272e6c146b4b41cdc53ea356, type: 3}
      propertyPath: m_LocalEulerAnglesHint.x
      value: 0
      objectReference: {fileID: 0}
    - target: {fileID: 4281075886339594, guid: 7f105c0c272e6c146b4b41cdc53ea356, type: 3}
      propertyPath: m_LocalEulerAnglesHint.y
      value: 0
      objectReference: {fileID: 0}
    - target: {fileID: 4281075886339594, guid: 7f105c0c272e6c146b4b41cdc53ea356, type: 3}
      propertyPath: m_LocalEulerAnglesHint.z
      value: 0
      objectReference: {fileID: 0}
    m_RemovedComponents: []
  m_SourcePrefab: {fileID: 100100000, guid: 7f105c0c272e6c146b4b41cdc53ea356, type: 3}
--- !u!4 &33259222435013859 stripped
Transform:
  m_CorrespondingSourceObject: {fileID: 4281075886339594, guid: 7f105c0c272e6c146b4b41cdc53ea356, type: 3}
  m_PrefabInstance: {fileID: 34089857886753513}
  m_PrefabAsset: {fileID: 0}
