%YAML 1.1
%TAG !u! tag:unity3d.com,2011:
--- !u!1 &5826130936701678777
GameObject:
  m_ObjectHideFlags: 0
  m_CorrespondingSourceObject: {fileID: 0}
  m_PrefabInstance: {fileID: 0}
  m_PrefabAsset: {fileID: 0}
  serializedVersion: 6
  m_Component:
  - component: {fileID: 6769357242574259966}
  - component: {fileID: 1658731678795910692}
  m_Layer: 0
  m_Name: FireballSocket
  m_TagString: Untagged
  m_Icon: {fileID: 0}
  m_NavMeshLayer: 0
  m_StaticEditorFlags: 0
  m_IsActive: 1
--- !u!4 &6769357242574259966
Transform:
  m_ObjectHideFlags: 0
  m_CorrespondingSourceObject: {fileID: 0}
  m_PrefabInstance: {fileID: 0}
  m_PrefabAsset: {fileID: 0}
  m_GameObject: {fileID: 5826130936701678777}
  m_LocalRotation: {x: 0, y: 0, z: 0, w: 1}
  m_LocalPosition: {x: 0, y: 0, z: 0}
  m_LocalScale: {x: 1, y: 1, z: 1}
  m_ConstrainProportionsScale: 0
  m_Children:
  - {fileID: 1221049190433682499}
  m_Father: {fileID: 0}
  m_RootOrder: 0
  m_LocalEulerAnglesHint: {x: 0, y: 0, z: 0}
--- !u!114 &1658731678795910692
MonoBehaviour:
  m_ObjectHideFlags: 0
  m_CorrespondingSourceObject: {fileID: 0}
  m_PrefabInstance: {fileID: 0}
  m_PrefabAsset: {fileID: 0}
  m_GameObject: {fileID: 5826130936701678777}
  m_Enabled: 1
  m_EditorHideFlags: 0
  m_Script: {fileID: 11500000, guid: ad993762ebebbe54ca42334de2d70894, type: 3}
  m_Name: 
  m_EditorClassIdentifier: 
--- !u!1001 &1216848372057526211
PrefabInstance:
  m_ObjectHideFlags: 0
  serializedVersion: 2
  m_Modification:
    m_TransformParent: {fileID: 6769357242574259966}
    m_Modifications:
    - target: {fileID: 1871614424300610, guid: 413c47d84d1a20046911d7de6f977649, type: 3}
      propertyPath: m_Name
      value: Rod Of Death
      objectReference: {fileID: 0}
    - target: {fileID: 4808032329644928, guid: 413c47d84d1a20046911d7de6f977649, type: 3}
      propertyPath: m_RootOrder
      value: 0
      objectReference: {fileID: 0}
    - target: {fileID: 4808032329644928, guid: 413c47d84d1a20046911d7de6f977649, type: 3}
      propertyPath: m_LocalScale.x
      value: 0.2
      objectReference: {fileID: 0}
    - target: {fileID: 4808032329644928, guid: 413c47d84d1a20046911d7de6f977649, type: 3}
      propertyPath: m_LocalScale.y
      value: 0.3
      objectReference: {fileID: 0}
    - target: {fileID: 4808032329644928, guid: 413c47d84d1a20046911d7de6f977649, type: 3}
      propertyPath: m_LocalScale.z
      value: 0.2
      objectReference: {fileID: 0}
    - target: {fileID: 4808032329644928, guid: 413c47d84d1a20046911d7de6f977649, type: 3}
      propertyPath: m_LocalPosition.x
      value: -0.084
      objectReference: {fileID: 0}
    - target: {fileID: 4808032329644928, guid: 413c47d84d1a20046911d7de6f977649, type: 3}
      propertyPath: m_LocalPosition.y
      value: -0.004
      objectReference: {fileID: 0}
    - target: {fileID: 4808032329644928, guid: 413c47d84d1a20046911d7de6f977649, type: 3}
      propertyPath: m_LocalPosition.z
      value: 0.437
      objectReference: {fileID: 0}
    - target: {fileID: 4808032329644928, guid: 413c47d84d1a20046911d7de6f977649, type: 3}
      propertyPath: m_LocalRotation.w
      value: 0.73111486
      objectReference: {fileID: 0}
    - target: {fileID: 4808032329644928, guid: 413c47d84d1a20046911d7de6f977649, type: 3}
      propertyPath: m_LocalRotation.x
      value: 0.66457915
      objectReference: {fileID: 0}
    - target: {fileID: 4808032329644928, guid: 413c47d84d1a20046911d7de6f977649, type: 3}
      propertyPath: m_LocalRotation.y
      value: 0.14960073
      objectReference: {fileID: 0}
    - target: {fileID: 4808032329644928, guid: 413c47d84d1a20046911d7de6f977649, type: 3}
      propertyPath: m_LocalRotation.z
      value: 0.037752822
      objectReference: {fileID: 0}
    - target: {fileID: 4808032329644928, guid: 413c47d84d1a20046911d7de6f977649, type: 3}
      propertyPath: m_LocalEulerAnglesHint.x
      value: 73.837
      objectReference: {fileID: 0}
    - target: {fileID: 4808032329644928, guid: 413c47d84d1a20046911d7de6f977649, type: 3}
      propertyPath: m_LocalEulerAnglesHint.y
      value: 75.03
      objectReference: {fileID: 0}
    - target: {fileID: 4808032329644928, guid: 413c47d84d1a20046911d7de6f977649, type: 3}
      propertyPath: m_LocalEulerAnglesHint.z
      value: 65.866
      objectReference: {fileID: 0}
    m_RemovedComponents:
    - {fileID: 136425915576702656, guid: 413c47d84d1a20046911d7de6f977649, type: 3}
  m_SourcePrefab: {fileID: 100100000, guid: 413c47d84d1a20046911d7de6f977649, type: 3}
--- !u!4 &1221049190433682499 stripped
Transform:
  m_CorrespondingSourceObject: {fileID: 4808032329644928, guid: 413c47d84d1a20046911d7de6f977649, type: 3}
  m_PrefabInstance: {fileID: 1216848372057526211}
  m_PrefabAsset: {fileID: 0}
