%YAML 1.1
%TAG !u! tag:unity3d.com,2011:
--- !u!114 &11400000
MonoBehaviour:
  m_ObjectHideFlags: 0
  m_CorrespondingSourceObject: {fileID: 0}
  m_PrefabInstance: {fileID: 0}
  m_PrefabAsset: {fileID: 0}
  m_GameObject: {fileID: 0}
  m_Enabled: 1
  m_EditorHideFlags: 0
  m_Script: {fileID: 11500000, guid: bf7f9e9f84e84a8fab6fcc3d9df3c5c9, type: 3}
  m_Name: Fireball
  m_EditorClassIdentifier: 
  itemID: 9260318c-3eb8-47ac-8f8a-1d41fc276b6f
  displayName: Staff
  description: Kaboom!
  icon: {fileID: 21300000, guid: 5732dc58816b91d4dbc488b1b3c8f08b, type: 3}
  pickup: {fileID: 3749541110913889989, guid: 6a01878b80bc8f34eb4e88e2ea188fda, type: 3}
  stackable: 0
  allowedEquipLocation: 5
  animationOverride: {fileID: 22100000, guid: 74fc4785aa3ee15469cf5aa14aed6639, type: 2}
  weaponPrefab: {fileID: 1658731678795910692, guid: ea0e0aebe5f585e4d93e3b79aed26356, type: 3}
  projectile: {fileID: 5706642626331718020, guid: 2e0995f7d52ef4b4cb85d4ab1a72ab6b, type: 3}
  weaponRange: 6
  attackSpeed: 2
  damage: 20
  percentageModifier: 100
  isRightHanded: 0
