%YAML 1.1
%TAG !u! tag:unity3d.com,2011:
--- !u!114 &11400000
MonoBehaviour:
  m_ObjectHideFlags: 0
  m_CorrespondingSourceObject: {fileID: 0}
  m_PrefabInstance: {fileID: 0}
  m_PrefabAsset: {fileID: 0}
  m_GameObject: {fileID: 0}
  m_Enabled: 1
  m_EditorHideFlags: 0
  m_Script: {fileID: 11500000, guid: bf7f9e9f84e84a8fab6fcc3d9df3c5c9, type: 3}
  m_Name: Sword
  m_EditorClassIdentifier: 
  itemID: 5104ddf1-ef03-41b6-a382-44aeffff99a3
  displayName: Sword
  description: Pointy and sharp.
  icon: {fileID: 21300000, guid: d19901b0ee3c38743a7d383bd484b0b5, type: 3}
  pickup: {fileID: 3749541110913889989, guid: 6a01878b80bc8f34eb4e88e2ea188fda, type: 3}
  stackable: 0
  allowedEquipLocation: 5
  animationOverride: {fileID: 22100000, guid: 721a476f9218bf64c936193b2be5a82d, type: 2}
  weaponPrefab: {fileID: 3890431107338362642, guid: 48758003f46d8f0428b2baef4227b32e, type: 3}
  projectile: {fileID: 0}
  weaponRange: 2
  attackSpeed: 1.15
  damage: 10
  percentageModifier: 50
  isRightHanded: 1
