%YAML 1.1
%TAG !u! tag:unity3d.com,2011:
--- !u!1001 &8700215472368141105
PrefabInstance:
  m_ObjectHideFlags: 0
  serializedVersion: 2
  m_Modification:
    m_TransformParent: {fileID: 0}
    m_Modifications:
    - target: {fileID: 118060847934975270, guid: 6cec68586b00a4f47b5cf2d14c967a6a, type: 3}
      propertyPath: characterClass
      value: 3
      objectReference: {fileID: 0}
    - target: {fileID: 325663419495889716, guid: 6cec68586b00a4f47b5cf2d14c967a6a, type: 3}
      propertyPath: m_Materials.Array.data[0]
      value: 
      objectReference: {fileID: 2100000, guid: bfbe2e8b331e2cc42be1591f949c0e41, type: 2}
    - target: {fileID: 1160681209191722547, guid: 6cec68586b00a4f47b5cf2d14c967a6a, type: 3}
      propertyPath: chaseDistance
      value: 9
      objectReference: {fileID: 0}
    - target: {fileID: 1736107710278473073, guid: 6cec68586b00a4f47b5cf2d14c967a6a, type: 3}
      propertyPath: m_Name
      value: EnemyMage
      objectReference: {fileID: 0}
    - target: {fileID: 2907318733357672106, guid: 6cec68586b00a4f47b5cf2d14c967a6a, type: 3}
      propertyPath: defaultWeapon
      value: 
      objectReference: {fileID: 11400000, guid: 38ddcb6fe5b31e34b8bd3d7d9ca3b106, type: 2}
    - target: {fileID: 4334718140207228143, guid: 6cec68586b00a4f47b5cf2d14c967a6a, type: 3}
      propertyPath: m_RootOrder
      value: 0
      objectReference: {fileID: 0}
    - target: {fileID: 4334718140207228143, guid: 6cec68586b00a4f47b5cf2d14c967a6a, type: 3}
      propertyPath: m_LocalPosition.x
      value: 0
      objectReference: {fileID: 0}
    - target: {fileID: 4334718140207228143, guid: 6cec68586b00a4f47b5cf2d14c967a6a, type: 3}
      propertyPath: m_LocalPosition.y
      value: 0
      objectReference: {fileID: 0}
    - target: {fileID: 4334718140207228143, guid: 6cec68586b00a4f47b5cf2d14c967a6a, type: 3}
      propertyPath: m_LocalPosition.z
      value: 0
      objectReference: {fileID: 0}
    - target: {fileID: 4334718140207228143, guid: 6cec68586b00a4f47b5cf2d14c967a6a, type: 3}
      propertyPath: m_LocalRotation.w
      value: 1
      objectReference: {fileID: 0}
    - target: {fileID: 4334718140207228143, guid: 6cec68586b00a4f47b5cf2d14c967a6a, type: 3}
      propertyPath: m_LocalRotation.x
      value: 0
      objectReference: {fileID: 0}
    - target: {fileID: 4334718140207228143, guid: 6cec68586b00a4f47b5cf2d14c967a6a, type: 3}
      propertyPath: m_LocalRotation.y
      value: 0
      objectReference: {fileID: 0}
    - target: {fileID: 4334718140207228143, guid: 6cec68586b00a4f47b5cf2d14c967a6a, type: 3}
      propertyPath: m_LocalRotation.z
      value: 0
      objectReference: {fileID: 0}
    - target: {fileID: 4334718140207228143, guid: 6cec68586b00a4f47b5cf2d14c967a6a, type: 3}
      propertyPath: m_LocalEulerAnglesHint.x
      value: 0
      objectReference: {fileID: 0}
    - target: {fileID: 4334718140207228143, guid: 6cec68586b00a4f47b5cf2d14c967a6a, type: 3}
      propertyPath: m_LocalEulerAnglesHint.y
      value: 0
      objectReference: {fileID: 0}
    - target: {fileID: 4334718140207228143, guid: 6cec68586b00a4f47b5cf2d14c967a6a, type: 3}
      propertyPath: m_LocalEulerAnglesHint.z
      value: 0
      objectReference: {fileID: 0}
    m_RemovedComponents: []
  m_SourcePrefab: {fileID: 100100000, guid: 6cec68586b00a4f47b5cf2d14c967a6a, type: 3}
